<?xml version="1.0" encoding="utf-8"?>
<!-- Generator: Adobe Illustrator 16.0.0, SVG Export Plug-In . SVG Version: 6.00 Build 0)  -->
<!DOCTYPE svg PUBLIC "-//W3C//DTD SVG 1.1//EN" "http://www.w3.org/Graphics/SVG/1.1/DTD/svg11.dtd">
<svg version="1.1" id="レイヤー_1" xmlns="http://www.w3.org/2000/svg" xmlns:xlink="http://www.w3.org/1999/xlink" x="0px"
	 y="0px" width="708px" height="268px" viewBox="0 0 708 268" enable-background="new 0 0 708 268" xml:space="preserve">
<g>
	<g>
		<g>
			<line fill="none" stroke="#6CBD33" stroke-width="3" stroke-miterlimit="10" x1="135" y1="60.5" x2="138" y2="60.5"/>
			
				<line fill="none" stroke="#6CBD33" stroke-width="3" stroke-miterlimit="10" stroke-dasharray="6,5" x1="144" y1="60.5" x2="267" y2="60.5"/>
			<line fill="none" stroke="#6CBD33" stroke-width="3" stroke-miterlimit="10" x1="269" y1="60.5" x2="272" y2="60.5"/>
		</g>
	</g>
	<g>
		<g>
			<line fill="none" stroke="#6CBD33" stroke-width="3" stroke-miterlimit="10" x1="135" y1="131.5" x2="138" y2="131.5"/>
			
				<line fill="none" stroke="#6CBD33" stroke-width="3" stroke-miterlimit="10" stroke-dasharray="6,5" x1="144" y1="131.5" x2="267" y2="131.5"/>
			<line fill="none" stroke="#6CBD33" stroke-width="3" stroke-miterlimit="10" x1="269" y1="131.5" x2="272" y2="131.5"/>
		</g>
	</g>
	<g>
		<g>
			<line fill="none" stroke="#6CBD33" stroke-width="3" stroke-miterlimit="10" x1="410" y1="96.5" x2="413" y2="96.5"/>
			
				<line fill="none" stroke="#6CBD33" stroke-width="3" stroke-miterlimit="10" stroke-dasharray="6,5" x1="419" y1="96.5" x2="542" y2="96.5"/>
			<line fill="none" stroke="#6CBD33" stroke-width="3" stroke-miterlimit="10" x1="544" y1="96.5" x2="547" y2="96.5"/>
		</g>
	</g>
	<g>
		<g>
			<line fill="none" stroke="#6CBD33" stroke-width="3" stroke-miterlimit="10" x1="410" y1="177.5" x2="413" y2="177.5"/>
			
				<line fill="none" stroke="#6CBD33" stroke-width="3" stroke-miterlimit="10" stroke-dasharray="6,5" x1="419" y1="177.5" x2="542" y2="177.5"/>
			<line fill="none" stroke="#6CBD33" stroke-width="3" stroke-miterlimit="10" x1="544" y1="177.5" x2="547" y2="177.5"/>
		</g>
	</g>
	<g>
		<g>
			<line fill="none" stroke="#6CBD33" stroke-width="3" stroke-miterlimit="10" x1="135" y1="208.5" x2="138" y2="208.5"/>
			
				<line fill="none" stroke="#6CBD33" stroke-width="3" stroke-miterlimit="10" stroke-dasharray="6,5" x1="144" y1="208.5" x2="267" y2="208.5"/>
			<line fill="none" stroke="#6CBD33" stroke-width="3" stroke-miterlimit="10" x1="269" y1="208.5" x2="272" y2="208.5"/>
		</g>
	</g>
	<g>
		<g>
			<path fill="#3E3A39" d="M427.424805,256.453125c0,2.351563-1.904297,4.255859-4.256836,4.255859H271.830078
				c-2.349609,0-4.254883-1.904297-4.254883-4.255859V12.950195c0-2.350586,1.905273-4.255859,4.254883-4.255859h151.337891
				c2.352539,0,4.256836,1.905273,4.256836,4.255859V256.453125z"/>
			<path fill="#FFFFFF" d="M416.152344,224.317383c0,1.875977-1.635742,3.391602-3.65332,3.391602h-129.99707
				c-2.017578,0-3.652344-1.515625-3.652344-3.391602v-194.125c0-1.874023,1.634766-3.393555,3.652344-3.393555h129.99707
				c2.017578,0,3.65332,1.519531,3.65332,3.393555V224.317383z"/>
			<circle fill="#9E9E9F" cx="347.5" cy="244.436523" r="8.517578"/>
		</g>
		<g>
			<path fill="#00B900" d="M318.772461,137.173828h3.569336c0.453125,0,0.824219-0.369141,0.824219-0.821289v-22.177734
				c0-0.452148-0.371094-0.819336-0.824219-0.819336h-3.569336c-0.454102,0-0.823242,0.367188-0.823242,0.819336v22.177734
				C317.949219,136.804688,318.318359,137.173828,318.772461,137.173828"/>
			<path fill="#00B900" d="M327.917969,137.173828h3.569336c0.454102,0,0.822266-0.369141,0.822266-0.821289v-13.954102
				l10.617188,14.425781c0.058594,0.081055,0.12793,0.149414,0.208008,0.204102l0.164063,0.085938
				c0.044922,0.017578,0.0625,0.023438,0.080078,0.02832c0.085938,0.021484,0.155273,0.03125,0.222656,0.03125h3.433594
				c0.454102,0,0.824219-0.369141,0.824219-0.821289v-22.177734c0-0.452148-0.370117-0.819336-0.824219-0.819336h-3.570313
				c-0.453125,0-0.823242,0.367188-0.823242,0.819336v13.823242l-10.602539-14.271484
				c-0.023438-0.037109-0.045898-0.0625-0.070313-0.09082c-0.019531-0.022461-0.036133-0.038086-0.052734-0.054688
				c-0.03125-0.027344-0.044922-0.041016-0.060547-0.052734c-0.03418-0.025391-0.047852-0.03418-0.060547-0.043945
				l-0.219727-0.098633l-0.155273-0.02832l-0.041992-0.001953h-3.459961c-0.455078,0-0.824219,0.367188-0.824219,0.819336v22.177734
				C327.09375,136.804688,327.462891,137.173828,327.917969,137.173828"/>
			<path fill="#00B900" d="M299.473633,137.173828h14.262695c0.453125,0,0.820313-0.369141,0.820313-0.823242v-3.569336
				c0-0.456055-0.367188-0.824219-0.820313-0.824219h-9.867188v-17.782227c0-0.452148-0.371094-0.819336-0.824219-0.819336
				h-3.569336c-0.454102,0-0.825195,0.367188-0.825195,0.819336v22.175781c0,0.213867,0.083008,0.416016,0.230469,0.568359
				C299.058594,137.092773,299.261719,137.173828,299.473633,137.173828"/>
			<path fill="#00B900" d="M352.047852,136.950195c0.145508,0.142578,0.347656,0.223633,0.55957,0.223633h14.263672
				c0.454102,0,0.823242-0.369141,0.823242-0.823242v-3.569336c0-0.454102-0.369141-0.824219-0.823242-0.824219h-9.869141v-4.084961
				h9.869141c0.454102,0,0.823242-0.370117,0.823242-0.823242v-3.570313c0-0.453125-0.369141-0.823242-0.823242-0.823242h-9.869141
				v-4.084961h9.869141c0.454102,0,0.823242-0.369141,0.823242-0.824219v-3.568359c0-0.455078-0.369141-0.824219-0.823242-0.824219
				h-14.262695c-0.213867,0-0.416016,0.082031-0.571289,0.232422c-0.169922,0.176758-0.251953,0.376953-0.251953,0.588867v22.175781
				c0,0.213867,0.082031,0.416016,0.231445,0.568359L352.047852,136.950195z"/>
			<path fill="#00B900" d="M385.907227,111.71582c-7.469727,0-13.546875,6.077148-13.546875,13.547852
				s6.077148,13.546875,13.546875,13.546875c1.436523,0,2.850586-0.223633,4.206055-0.666992l0.806641-0.283203
				c0.288086-0.092773,0.447266-0.401367,0.354492-0.68457l-0.775391-2.388672
				c-0.089844-0.27832-0.391602-0.443359-0.685547-0.347656l-0.811523,0.285156
				c-0.996094,0.325195-2.037109,0.490234-3.094727,0.490234c-5.489258,0-9.952148-4.464844-9.952148-9.951172
				s4.462891-9.951172,9.952148-9.951172c5.486328,0,9.951172,4.464844,9.951172,9.951172
				c0,1.12207-0.212891,2.296875-0.628906,3.490234c-0.301758,0.867188-1.005859,1.572266-1.567383,1.572266
				c-0.765625,0-1.387695-0.62207-1.387695-1.387695v-9.580078c0-0.298828-0.244141-0.541992-0.541992-0.541992h-2.513672
				c-0.286133,0-0.523438,0.225586-0.537109,0.513672l-0.010742,0.212891l-0.185547-0.099609
				c-0.959961-0.519531-2.043945-0.792969-3.135742-0.792969c-3.648438,0-6.615234,2.966797-6.615234,6.613281
				c0,3.648438,2.966797,6.615234,6.615234,6.615234c1.254883,0,2.478516-0.358398,3.541016-1.03418l0.130859-0.083008
				l0.064453,0.144531c0.788086,1.833008,2.585938,3.016602,4.576172,3.016602c2.136719,0,4.130859-1.601563,4.962891-3.982422
				c0.548828-1.576172,0.830078-3.149414,0.830078-4.676758C399.455078,117.792969,393.376953,111.71582,385.907227,111.71582
				 M388.629883,125.263672c0,1.802734-1.466797,3.268555-3.271484,3.268555c-1.800781,0-3.268555-1.46582-3.268555-3.268555
				s1.467773-3.268555,3.268555-3.268555C387.163086,121.995117,388.629883,123.460938,388.629883,125.263672"/>
		</g>
	</g>
	<g>
		<rect x="10" y="35" fill="#3FA9F5" width="202" height="46"/>
		<g>
			<path fill="#FFFFFF" d="M77.904297,50.397461c-0.063477,0.188477-0.273438,0.31543-0.587891,0.293945
				c-0.189453,0.609375-0.399414,1.217773-0.609375,1.826172h10.246094v2.415039H75.699219
				c-0.671875,1.427734-1.449219,2.834961-2.393555,4.157227l0.335938,0.083984
				c-0.041992,0.189453-0.209961,0.357422-0.567383,0.37793v9.84668h-2.519531v-7.138672
				c-0.566406,0.525391-1.196289,1.007813-1.847656,1.470703c-0.251953-0.714844-0.880859-1.827148-1.238281-2.457031
				c2.246094-1.511719,4.073242-3.905273,5.291016-6.34082h-4.619141v-2.415039h5.710938
				c0.37793-0.986328,0.693359-1.972656,0.945313-2.939453L77.904297,50.397461z M81.767578,61.693359v4.829102h5.123047v2.331055
				H74.208984v-2.331055h5.017578v-4.829102h-4.220703v-2.330078h4.220703v-3.527344l3.107422,0.167969
				c-0.021484,0.230469-0.167969,0.335938-0.566406,0.419922v2.939453h4.283203v2.330078H81.767578z"/>
			<path fill="#FFFFFF" d="M109.338867,65.094727v2.036133h-6.887695v2.289063h-2.392578v-2.289063h-6.404297v-2.036133h6.404297
				v-1.007813h-4.913086v-6.571289h4.913086v-0.945313h-5.521484v-1.889648h5.521484v-1.091797h-6.320313v3.947266
				c0,3.443359-0.314453,8.650391-2.224609,11.946289c-0.419922-0.419922-1.491211-1.132813-2.037109-1.384766
				c1.742188-3.023438,1.869141-7.433594,1.869141-10.561523v-6.151367h7.579102v-1.785156l3.19043,0.167969
				c-0.019531,0.209961-0.167969,0.335938-0.566406,0.419922v1.197266h7.664063v2.204102h-6.214844
				c-0.021484,0.188477-0.189453,0.293945-0.546875,0.37793v0.713867H108.625v1.889648h-6.173828v0.945313h5.144531v6.571289
				h-5.144531v1.007813H109.338867z M97.349609,59.068359v1.007813h2.708984v-1.007813H97.349609z M97.349609,62.533203h2.708984
				v-1.007813h-2.708984V62.533203z M105.287109,59.068359h-2.835938v1.007813h2.835938V59.068359z M105.287109,62.533203v-1.007813
				h-2.835938v1.007813H105.287109z"/>
			<path fill="#FFFFFF" d="M131.556641,66.542969v2.079102h-7.915039v0.860352h-2.37207v-7.978516
				c-0.31543,0.294922-0.651367,0.587891-1.007813,0.839844c-0.189453-0.503906-0.609375-1.34375-0.945313-1.952148v6.614258
				h-3.821289v1.720703h-2.036133v-5.731445c-0.251953,0.44043-0.525391,0.839844-0.819336,1.217773
				c-0.251953-0.587891-0.860352-1.805664-1.196289-2.351563c1.364258-1.910156,2.204102-5.269531,2.6875-8.776367h-2.142578
				v-2.288086h7.726563v1.175781h4.283203c0.231445-0.798828,0.441406-1.638672,0.609375-2.478516l2.876953,0.609375
				c-0.063477,0.189453-0.251953,0.314453-0.567383,0.314453c-0.125977,0.525391-0.251953,1.050781-0.399414,1.554688h4.914063
				v4.072266h-2.24707v-0.335938c-0.063477,0.021484-0.147461,0.021484-0.251953,0.021484
				c-0.167969,0.419922-0.37793,0.902344-0.608398,1.385742h2.8125v2.099609h-3.337891v1.175781h2.75v1.868164h-2.75v1.21875h2.75
				v1.847656h-2.75v1.216797H131.556641z M117.195313,64.842773V59.53125h-1.700195v5.311523H117.195313z M119.316406,57.347656
				v2.498047c1.701172-1.322266,3.001953-3.337891,3.96875-5.75293h-1.491211v1.952148h-2.120117v-2.959961h-3.150391
				c-0.251953,1.448242-0.524414,2.897461-0.880859,4.262695H119.316406z M125.489258,60.391602V59.21582h-1.847656v1.175781
				H125.489258z M125.489258,63.478516v-1.21875h-1.847656v1.21875H125.489258z M123.641602,65.326172v1.216797h1.847656v-1.216797
				H123.641602z M129.18457,54.092773h-3.317383c-0.37793,1.071289-0.818359,2.079102-1.301758,3.023438h1.407227
				c0.314453-0.776367,0.628906-1.679688,0.818359-2.37207l2.393555,0.650391V54.092773z"/>
			<path fill="#FFFFFF" d="M141.450195,53.084961v1.995117h-7.68457v-1.995117H141.450195z M140.925781,61.861328v5.144531
				c0.796875-1.050781,1.216797-2.708984,1.384766-4.34668l2.015625,0.545898
				c-0.208984,1.869141-0.587891,3.841797-1.636719,5.101563l-1.763672-1.132813v1.112305h-4.178711v0.819336h-2.079102v-7.244141
				H140.925781z M140.882813,56.044922v1.911133h-6.152344v-1.911133H140.882813z M134.730469,60.832031v-1.888672h6.152344
				v1.888672H134.730469z M140.841797,50.25v1.911133h-6.046875V50.25H140.841797z M138.826172,66.291016v-2.435547h-2.079102
				v2.435547H138.826172z M153.040039,51.089844c-0.356445,8.461914-0.461914,8.461914-4.807617,8.357422
				c-0.042969-0.651367-0.273438-1.554688-0.609375-2.142578l0.273438,0.021484
				c-0.378906-0.251953-0.819336-0.503906-1.302734-0.777344c-0.755859,1.365234-1.847656,2.625-3.568359,3.611328
				c-0.294922-0.566406-0.966797-1.384766-1.491211-1.804688c1.448242-0.735352,2.393555-1.722656,3.043945-2.814453
				c-0.777344-0.335938-1.574219-0.650391-2.308594-0.880859l1.175781-1.743164
				c0.628906,0.188477,1.300781,0.419922,1.952148,0.692383c0.125977-0.398438,0.209961-0.796875,0.293945-1.196289h-3.169922
				v-2.099609h8.754883l0.503906-0.041992l1.323242,0.146484L153.040039,51.089844z M147.035156,66.3125
				c0,0.587891,0.041992,0.629883,0.357422,0.629883h0.880859c0.335938,0,0.419922-0.231445,0.462891-2.036133
				c0.44043,0.356445,1.427734,0.734375,2.036133,0.880859c-0.209961,2.646484-0.819336,3.338867-2.24707,3.338867h-1.532227
				c-1.889648,0-2.288086-0.713867-2.288086-2.791992v-4.367188l2.855469,0.167969
				c-0.021484,0.188477-0.167969,0.314453-0.525391,0.376953V66.3125z M148.504883,63.058594
				c-0.692383-0.90332-2.24707-2.163086-3.569336-2.982422l1.574219-1.364258
				c1.323242,0.776367,2.939453,1.931641,3.695313,2.855469L148.504883,63.058594z M148.336914,57.368164
				c0.483398,0.020508,0.860352,0.020508,1.155273,0.020508c0.230469,0,0.376953-0.0625,0.544922-0.251953
				c0.273438-0.335938,0.462891-1.595703,0.609375-4.723633h-2.644531c-0.148438,0.671875-0.316406,1.385742-0.546875,2.120117
				c0.755859,0.378906,1.449219,0.755859,1.973633,1.091797L148.336914,57.368164z M151.654297,68.390625
				c-0.230469-1.46875-1.091797-3.673828-2.099609-5.291016l2.037109-0.818359
				c1.091797,1.595703,1.972656,3.737305,2.288086,5.207031L151.654297,68.390625z"/>
		</g>
	</g>
	<g>
		<rect x="10" y="108" fill="#FF7BAC" width="202" height="46"/>
		<g>
			<path fill="#FFFFFF" d="M87.205078,138.275391v2.289063h-8.460938v2.813477h-2.603516v-2.813477h-8.209961v-2.289063h8.209961
				v-1.112305h-6.089844v-8.524414h6.089844v-1.029297h-7.707031v-2.288086h7.707031v-1.743164l3.191406,0.189453
				c-0.021484,0.209961-0.189453,0.335938-0.587891,0.398438v1.155273h7.851563v2.288086h-7.851563v1.029297h6.277344v8.524414
				h-6.277344v1.112305H87.205078z M72.464844,130.654297v1.28125h3.675781v-1.28125H72.464844z M72.464844,135.147461h3.675781
				v-1.323242h-3.675781V135.147461z M82.459961,130.654297h-3.71582v1.28125h3.71582V130.654297z M82.459961,135.147461v-1.323242
				h-3.71582v1.323242H82.459961z"/>
			<path fill="#FFFFFF" d="M108.625,137.730469h-3.737305c1.217773,2.204102,2.813477,3.023438,4.850586,3.652344
				c-0.567383,0.525391-1.175781,1.365234-1.449219,2.099609c-2.099609-0.818359-3.757813-1.888672-5.081055-4.177734
				c-0.881836,1.679688-2.561523,3.191406-5.69043,4.199219c-0.230469-0.503906-0.944336-1.469727-1.34375-1.869141
				c3.275391-1.02832,4.682617-2.392578,5.270508-3.904297h-3.883789v-5.858398h4.283203v-1.34375h-2.646484v-1.133789
				c-0.566406,0.398438-1.175781,0.755859-1.763672,1.049805c-0.146484-0.335938-0.356445-0.755859-0.587891-1.175781v1.007813
				h-1.931641v1.007813c0.567383,0.735352,2.058594,3.023438,2.373047,3.547852l-1.28125,1.953125
				c-0.230469-0.609375-0.650391-1.533203-1.091797-2.414063v9.006836h-2.330078v-7.852539
				c-0.545898,1.617188-1.217773,3.085938-1.931641,4.115234c-0.230469-0.671875-0.777344-1.658203-1.154297-2.246094
				c1.238281-1.679688,2.37207-4.598633,2.939453-7.118164h-2.457031v-2.331055h2.603516v-4.367188l2.876953,0.167969
				c-0.021484,0.189453-0.167969,0.31543-0.546875,0.378906v3.820313h1.931641v0.167969
				c2.079102-1.070313,4.010742-2.875977,4.955078-4.492188c0.083984,0,0.167969,0.020508,2.833984,0.104492
				c-0.041016,0.147461-0.1875,0.272461-0.376953,0.31543c1.28125,1.679688,3.589844,3.400391,5.626953,4.199219
				c-0.461914,0.608398-0.966797,1.511719-1.301758,2.224609c-0.545898-0.272461-1.112305-0.608398-1.679688-1.007813v1.071289
				h-2.791992v1.34375H108.625V137.730469z M99.744141,135.798828h2.078125c0.021484-0.231445,0.021484-0.483398,0.021484-0.714844
				v-1.280273h-2.099609V135.798828z M105.539063,128.449219c-1.029297-0.839844-1.931641-1.78418-2.5625-2.666016
				c-0.587891,0.881836-1.490234,1.805664-2.519531,2.666016H105.539063z M106.357422,133.803711h-2.246094v1.34375
				c0,0.209961,0,0.44043-0.021484,0.651367h2.267578V133.803711z"/>
			<path fill="#FFFFFF" d="M129.708984,131.494141l1.869141,0.398438c-0.251953,0.755859-2.393555,4.03125-5.081055,6.466797
				l-2.099609-1.300781c0.90332-0.819336,1.931641-1.974609,2.791992-3.128906h-3.757813
				c-0.0625,0.125977-0.230469,0.209961-0.503906,0.230469v6.530273c0,2.393555-1.113281,2.708008-5.480469,2.708008
				c-0.146484-0.712891-0.566406-1.763672-0.923828-2.435547c1.259766,0.063477,2.814453,0.063477,3.234375,0.063477
				c0.419922-0.020508,0.544922-0.104492,0.544922-0.419922v-6.676758h-8.230469v-2.393555h9.617188
				c-1.575195-0.797852-3.464844-1.595703-5.039063-2.120117l1.720703-1.743164
				c1.071289,0.31543,2.310547,0.776367,3.527344,1.280273c0.818359-0.524414,1.679688-1.175781,2.435547-1.826172h-10.224609
				v-2.30957H126.9375l0.462891-0.147461l2.224609,1.407227c-0.125,0.147461-0.335938,0.251953-0.587891,0.293945
				c-1.216797,1.154297-2.917969,2.561523-4.639648,3.716797c0.567383,0.272461,1.071289,0.544922,1.491211,0.818359
				l-0.587891,0.629883h3.863281L129.708984,131.494141z"/>
			<path fill="#FFFFFF" d="M151.696289,127.378906l1.34375,0.083984c0,0.209961-0.020508,0.545898-0.041992,0.818359
				c-0.251953,9.490234-0.503906,12.787109-1.322266,13.857422c-0.671875,0.945313-1.427734,1.239258-3.611328,1.239258
				c-0.567383,0-1.155273-0.020508-1.743164-0.041992c-0.041992-0.671875-0.356445-1.701172-0.797852-2.373047
				c1.322266,0.105469,2.519531,0.105469,3.06543,0.105469c0.419922,0,0.651367-0.0625,0.90332-0.357422
				c0.608398-0.628906,0.839844-3.695313,1.048828-10.938477h-5.269531c-0.503906,1.112305-1.070313,2.120117-1.658203,2.939453
				c-0.441406-0.37793-1.28125-0.96582-1.912109-1.301758c0.736328,1.133789,1.408203,2.373047,1.701172,3.296875
				c-0.712891,0.376953-1.322266,0.712891-1.931641,1.048828c-0.083984-0.314453-0.230469-0.692383-0.398438-1.091797
				l-1.574219,0.105469v8.628906H137.1875v-6.697266c-0.0625,0.125977-0.230469,0.167969-0.419922,0.146484
				c-0.251953,1.743164-0.734375,3.758789-1.364258,5.039063c-0.461914-0.314453-1.323242-0.712891-1.868164-0.923828
				c0.587891-1.154297,0.964844-3.148438,1.175781-4.955078l2.476563,0.609375v-1.701172
				c-1.02832,0.063477-1.931641,0.105469-2.6875,0.147461c-0.0625,0.188477-0.230469,0.272461-0.398438,0.293945l-0.482422-2.519531
				h1.53125c0.357422-0.441406,0.736328-0.902344,1.113281-1.40625c-0.650391-0.861328-1.679688-1.890625-2.560547-2.646484
				l1.154297-1.720703l0.460938,0.376953c0.736328-1.196289,1.470703-2.666016,1.890625-3.841797l2.519531,1.029297
				c-0.083984,0.167969-0.294922,0.251953-0.566406,0.230469c-0.587891,1.175781-1.575195,2.729492-2.394531,3.884766
				c0.31543,0.314453,0.587891,0.608398,0.819336,0.880859c0.860352-1.238281,1.637695-2.498047,2.225586-3.589844
				l2.457031,1.133789c-0.105469,0.147461-0.31543,0.209961-0.609375,0.209961
				c-1.049805,1.637695-2.646484,3.737305-4.136719,5.416992l2.625-0.041992
				c-0.314453-0.525391-0.630859-1.049805-0.945313-1.533203c0.671875-0.356445,1.239258-0.628906,1.785156-0.902344
				c0.209961,0.293945,0.398438,0.587891,0.609375,0.902344c1.322266-1.763672,2.414063-4.765625,3.023438-7.642578
				l2.980469,0.755859c-0.0625,0.189453-0.251953,0.294922-0.566406,0.273438
				c-0.230469,0.923828-0.503906,1.869141-0.839844,2.792969h4.955078L151.696289,127.378906z M141.072266,140.921875
				c-0.230469-1.134766-0.839844-2.918945-1.40625-4.262695l1.972656-0.651367
				c0.587891,1.323242,1.239258,3.00293,1.511719,4.136719L141.072266,140.921875z M145.691406,132.25
				c1.091797,1.469727,2.310547,3.421875,2.75,4.765625l-2.204102,1.134766c-0.37793-1.302734-1.511719-3.359375-2.583008-4.871094
				L145.691406,132.25z"/>
		</g>
	</g>
	<g>
		<rect x="10" y="188" fill="#6CBD33" width="202" height="46"/>
		<g>
			<path fill="#FFFFFF" d="M87.015625,214.210938h-6.550781c1.785156,2.183594,4.472656,4.199219,7.138672,5.311523
				c-0.587891,0.524414-1.448242,1.575195-1.869141,2.267578c-2.518555-1.280273-4.954102-3.359375-6.865234-5.75293v6.34082
				h-2.666016v-6.151367c-1.931641,2.288086-4.367188,4.240234-6.865234,5.5
				c-0.419922-0.650391-1.259766-1.679688-1.869141-2.204102c2.6875-1.112305,5.416016-3.149414,7.244141-5.311523h-6.65625
				v-2.415039h3.989258c-0.251953-1.007813-0.923828-2.477539-1.575195-3.569336l2.267578-0.839844
				c0.735352,1.154297,1.533203,2.666016,1.806641,3.716797l-1.785156,0.692383h3.443359v-4.493164h-7.138672v-2.414063h7.138672
				v-2.310547l3.253906,0.189453c-0.020508,0.189453-0.188477,0.335938-0.587891,0.398438v1.722656h7.306641v2.414063h-3.527344
				l2.792969,1.007813c-0.126953,0.189453-0.357422,0.251953-0.609375,0.230469
				c-0.482422,1.007813-1.238281,2.310547-1.910156,3.254883h4.09375V214.210938z M78.869141,207.302734v4.493164h3.296875
				c-0.650391-0.272461-1.595703-0.651367-1.595703-0.651367c0.650391-1.02832,1.449219-2.624023,1.889648-3.841797H78.869141z"/>
			<path fill="#FFFFFF" d="M101.548828,205.056641h7.726563v2.392578H93.884766v2.939453
				c0,3.422852-0.314453,8.650391-2.224609,11.96875c-0.461914-0.419922-1.595703-1.155273-2.183594-1.427734
				c1.742188-3.023438,1.889648-7.474609,1.889648-10.541016v-5.332031h7.558594v-2.457031l3.19043,0.167969
				c-0.019531,0.209961-0.167969,0.335938-0.566406,0.419922V205.056641z M102.935547,207.932617
				c-0.021484,0.231445-0.189453,0.356445-0.568359,0.419922v1.407227h6.615234v2.246094h-6.615234v2.289063h5.375977v8.083008
				h-2.583008v-0.755859h-7.537109v0.776367h-2.457031v-8.103516h4.640625v-6.530273L102.935547,207.932617z M105.160156,219.417969
				v-2.898438h-7.537109v2.898438H105.160156z"/>
			<path fill="#FFFFFF" d="M129.708984,210.494141l1.869141,0.398438c-0.251953,0.755859-2.393555,4.03125-5.081055,6.466797
				l-2.099609-1.300781c0.90332-0.819336,1.931641-1.974609,2.791992-3.128906h-3.757813
				c-0.0625,0.125977-0.230469,0.209961-0.503906,0.230469v6.530273c0,2.393555-1.113281,2.708008-5.480469,2.708008
				c-0.146484-0.712891-0.566406-1.763672-0.923828-2.435547c1.259766,0.063477,2.814453,0.063477,3.234375,0.063477
				c0.419922-0.020508,0.544922-0.104492,0.544922-0.419922v-6.676758h-8.230469v-2.393555h9.617188
				c-1.575195-0.797852-3.464844-1.595703-5.039063-2.120117l1.720703-1.743164
				c1.071289,0.31543,2.310547,0.776367,3.527344,1.280273c0.818359-0.524414,1.679688-1.175781,2.435547-1.826172h-10.224609
				v-2.30957H126.9375l0.462891-0.147461l2.224609,1.407227c-0.125,0.147461-0.335938,0.251953-0.587891,0.293945
				c-1.216797,1.154297-2.917969,2.561523-4.639648,3.716797c0.567383,0.272461,1.071289,0.544922,1.491211,0.818359
				l-0.587891,0.629883h3.863281L129.708984,210.494141z"/>
			<path fill="#FFFFFF" d="M151.696289,206.378906l1.34375,0.083984c0,0.209961-0.020508,0.545898-0.041992,0.818359
				c-0.251953,9.490234-0.503906,12.787109-1.322266,13.857422c-0.671875,0.945313-1.427734,1.239258-3.611328,1.239258
				c-0.567383,0-1.155273-0.020508-1.743164-0.041992c-0.041992-0.671875-0.356445-1.701172-0.797852-2.373047
				c1.322266,0.105469,2.519531,0.105469,3.06543,0.105469c0.419922,0,0.651367-0.0625,0.90332-0.357422
				c0.608398-0.628906,0.839844-3.695313,1.048828-10.938477h-5.269531c-0.503906,1.112305-1.070313,2.120117-1.658203,2.939453
				c-0.441406-0.37793-1.28125-0.96582-1.912109-1.301758c0.736328,1.133789,1.408203,2.373047,1.701172,3.296875
				c-0.712891,0.376953-1.322266,0.712891-1.931641,1.048828c-0.083984-0.314453-0.230469-0.692383-0.398438-1.091797
				l-1.574219,0.105469v8.628906H137.1875v-6.697266c-0.0625,0.125977-0.230469,0.167969-0.419922,0.146484
				c-0.251953,1.743164-0.734375,3.758789-1.364258,5.039063c-0.461914-0.314453-1.323242-0.712891-1.868164-0.923828
				c0.587891-1.154297,0.964844-3.148438,1.175781-4.955078l2.476563,0.609375v-1.701172
				c-1.02832,0.063477-1.931641,0.105469-2.6875,0.147461c-0.0625,0.188477-0.230469,0.272461-0.398438,0.293945l-0.482422-2.519531
				h1.53125c0.357422-0.441406,0.736328-0.902344,1.113281-1.40625c-0.650391-0.861328-1.679688-1.890625-2.560547-2.646484
				l1.154297-1.720703l0.460938,0.376953c0.736328-1.196289,1.470703-2.666016,1.890625-3.841797l2.519531,1.029297
				c-0.083984,0.167969-0.294922,0.251953-0.566406,0.230469c-0.587891,1.175781-1.575195,2.729492-2.394531,3.884766
				c0.31543,0.314453,0.587891,0.608398,0.819336,0.880859c0.860352-1.238281,1.637695-2.498047,2.225586-3.589844
				l2.457031,1.133789c-0.105469,0.147461-0.31543,0.209961-0.609375,0.209961
				c-1.049805,1.637695-2.646484,3.737305-4.136719,5.416992l2.625-0.041992
				c-0.314453-0.525391-0.630859-1.049805-0.945313-1.533203c0.671875-0.356445,1.239258-0.628906,1.785156-0.902344
				c0.209961,0.293945,0.398438,0.587891,0.609375,0.902344c1.322266-1.763672,2.414063-4.765625,3.023438-7.642578
				l2.980469,0.755859c-0.0625,0.189453-0.251953,0.294922-0.566406,0.273438
				c-0.230469,0.923828-0.503906,1.869141-0.839844,2.792969h4.955078L151.696289,206.378906z M141.072266,219.921875
				c-0.230469-1.134766-0.839844-2.918945-1.40625-4.262695l1.972656-0.651367
				c0.587891,1.323242,1.239258,3.00293,1.511719,4.136719L141.072266,219.921875z M145.691406,211.25
				c1.091797,1.469727,2.310547,3.421875,2.75,4.765625l-2.204102,1.134766c-0.37793-1.302734-1.511719-3.359375-2.583008-4.871094
				L145.691406,211.25z"/>
		</g>
	</g>
	<g>
		<rect x="476" y="72" fill="#FF931E" width="221" height="46"/>
		<g>
			<path fill="#FFFFFF" d="M534.583984,96.068359c-0.461914,0.735352-0.945313,1.427734-1.449219,2.037109
				c-0.188477-0.629883-0.734375-2.037109-1.048828-2.666016c1.595703-1.974609,3.191406-5.417969,4.15625-8.777344
				l2.750977,0.90332c-0.083984,0.188477-0.272461,0.272461-0.587891,0.251953
				c-0.44043,1.301758-0.944336,2.624023-1.511719,3.905273l0.629883,0.189453
				c-0.041992,0.188477-0.209961,0.314453-0.545898,0.376953v14.152344h-2.393555V96.068359z M552.010742,90.736328h-1.575195
				c-0.587891,1.216797-1.384766,2.267578-2.330078,3.169922c1.322266,0.650391,2.876953,1.154297,4.640625,1.449219
				c-0.441406,0.460938-1.071289,1.40625-1.365234,2.015625c-1.953125-0.441406-3.65332-1.175781-5.060547-2.037109
				c-1.40625,0.923828-3.043945,1.637695-4.849609,2.141602c-0.230469-0.44043-0.777344-1.155273-1.197266-1.616211v6.991211
				h-2.183594V89.287109l2.708984,0.146484c-0.021484,0.189453-0.167969,0.335938-0.525391,0.378906v2.099609
				c1.365234-1.323242,2.603516-3.338867,3.275391-5.333984l2.603516,0.735352
				c-0.0625,0.209961-0.292969,0.272461-0.524414,0.251953c-0.147461,0.399414-0.31543,0.776367-0.503906,1.175781h6.886719
				V90.736328z M540.273438,95.607422c1.554688-0.378906,2.960938-0.923828,4.177734-1.65918
				c-0.586914-0.524414-1.111328-1.071289-1.574219-1.637695c-0.419922,0.525391-0.880859,1.007813-1.364258,1.427734
				c-0.293945-0.293945-0.776367-0.693359-1.239258-1.029297V95.607422z M552.578125,101.548828
				c-0.064453,0.146484-0.251953,0.251953-0.546875,0.251953c-2.099609,2.289063-5.81543,3.716797-10.140625,4.513672
				c-0.273438-0.608398-0.797852-1.448242-1.28125-1.994141c3.925781-0.525391,7.601563-1.701172,9.40625-3.673828
				L552.578125,101.548828z M548.587891,97.139648c-0.0625,0.125977-0.208984,0.209961-0.44043,0.209961
				c-1.217773,1.049805-3.317383,2.078125-5.291016,2.708984c-0.293945-0.462891-0.860352-1.050781-1.323242-1.449219
				c1.763672-0.461914,3.822266-1.322266,4.871094-2.267578L548.587891,97.139648z M550.625,99.029297
				c-0.0625,0.125977-0.209961,0.209961-0.461914,0.230469c-1.553711,1.533203-4.367188,2.814453-7.264648,3.570313
				c-0.273438-0.483398-0.777344-1.155273-1.217773-1.595703c2.645508-0.525391,5.395508-1.595703,6.801758-3.00293
				L550.625,99.029297z M544.074219,90.736328c0.525391,0.692383,1.21875,1.384766,2.057617,1.994141
				c0.671875-0.587891,1.239258-1.238281,1.700195-1.994141H544.074219z"/>
			<path fill="#FFFFFF" d="M559.615234,100.24707l2.457031-0.629883c0,0.021484,0.020508,0.0625,0.272461,2.141602
				c-2.499023,0.735352-5.165039,1.511719-6.866211,1.995117c-0.041016,0.208984-0.208984,0.314453-0.356445,0.356445
				l-0.755859-2.624023c0.797852-0.167969,1.763672-0.399414,2.834961-0.651367v-4.661133h-2.310547v-2.30957h2.310547v-3.779297
				h-2.478516v-2.331055h7.244141v2.331055h-2.351563v3.779297h2.183594v2.30957h-2.183594V100.24707z M569.126953,103.564453h5.375
				v2.267578h-13.458984v-2.267578h5.75293v-2.30957h-4.40918v-2.225586h4.40918v-1.826172h-4.325195v-9.574219h11.210938v9.574219
				h-4.554688v1.826172h4.703125v2.225586h-4.703125V103.564453z M564.696289,89.749023v1.65918h2.099609v-1.65918H564.696289z
				 M564.696289,95.060547h2.099609v-1.658203h-2.099609V95.060547z M571.351563,91.408203v-1.65918h-2.224609v1.65918H571.351563z
				 M571.351563,95.060547v-1.658203h-2.224609v1.658203H571.351563z"/>
			<path fill="#FFFFFF" d="M585.445313,99.974609c-0.021484,0.188477-0.210938,0.335938-0.546875,0.376953
				c-0.524414,2.898438-1.427734,4.998047-6.949219,6.110352c-0.230469-0.651367-0.861328-1.700195-1.365234-2.24707
				c4.787109-0.734375,5.396484-2.120117,5.710938-4.535156L585.445313,99.974609z M590.021484,103.060547
				c0,0.693359,0.126953,0.797852,0.923828,0.797852h2.205078c0.734375,0,0.861328-0.37793,0.964844-2.855469
				c0.525391,0.419922,1.638672,0.839844,2.310547,1.007813c-0.273438,3.359375-0.945313,4.219727-3.044922,4.219727h-2.791992
				c-2.520508,0-3.12793-0.755859-3.12793-3.148438v-3.90625h-7.853516V87.25h13.857422v11.925781h-3.443359V103.060547z
				 M582.042969,89.329102v1.301758h8.861328v-1.301758H582.042969z M582.042969,92.541016v1.323242h8.861328v-1.323242H582.042969z
				 M582.042969,95.795898v1.34375h8.861328v-1.34375H582.042969z"/>
			<path fill="#FFFFFF" d="M604.15625,95.585938c0.609375,0.566406,2.330078,2.477539,2.708984,2.981445l-1.449219,1.952148
				c-0.251953-0.587891-0.755859-1.427734-1.259766-2.246094v8.125h-2.414063V98.90332
				c-0.630859,1.616211-1.34375,3.12793-2.121094,4.178711c-0.209961-0.714844-0.777344-1.785156-1.154297-2.415039
				c1.091797-1.385742,2.162109-3.674805,2.833984-5.710938h-2.519531v-2.30957h2.960938v-2.435547
				c-0.798828,0.230469-1.595703,0.419922-2.373047,0.587891c-0.125977-0.503906-0.461914-1.301758-0.755859-1.785156
				c2.351563-0.587891,4.913086-1.490234,6.424805-2.435547l1.889648,1.763672v-0.272461h4.136719v-1.491211l3.001953,0.167969
				c-0.021484,0.210938-0.189453,0.335938-0.566406,0.399414v0.923828h4.134766v1.637695H613.5v0.734375h3.443359v1.554688H613.5
				v0.755859h4.912109v1.78418h-11.966797v-1.78418h4.619141v-0.755859h-3.338867v-1.554688h3.338867v-0.734375h-4.136719v-1.259766
				c-0.146484,0.083984-0.273438,0.083984-0.482422,0.083984c-0.651367,0.314453-1.427734,0.629883-2.289063,0.945313v3.169922
				h2.057617v2.30957h-2.057617V95.585938z M617.068359,103.144531h-1.617188c1.176758,0.693359,2.5,1.469727,3.276367,2.037109
				l-2.350586,1.216797c-0.757813-0.628906-2.142578-1.636719-3.318359-2.351563l1.259766-0.902344h-3.925781l1.364258,0.881836
				c-0.063477,0.083984-0.209961,0.125977-0.37793,0.147461c-0.923828,0.818359-2.876953,1.742188-4.535156,2.204102
				c-0.335938-0.461914-0.96582-1.196289-1.449219-1.637695c1.28125-0.357422,2.730469-0.986328,3.695313-1.595703h-1.384766
				v-7.936523h9.363281V103.144531z M610.035156,96.699219v0.776367h4.577148v-0.776367H610.035156z M610.035156,98.777344v0.777344
				h4.577148v-0.777344H610.035156z M610.035156,100.876953v0.797852h4.577148v-0.797852H610.035156z"/>
			<path fill="#FFFFFF" d="M624.863281,99.091797c-0.399414-1.46875-0.546875-3.316406-0.567383-4.555664
				c0-1.553711,0.167969-3.842773,0.608398-6.382813l3.275391,0.44043c-0.0625,0.251953-0.314453,0.335938-0.524414,0.378906
				c-0.461914,1.720703-0.819336,4.744141-0.735352,5.941406c0.398438-0.923828,1.091797-2.099609,1.575195-2.855469
				c0.272461,0.482422,0.881836,1.34375,1.196289,1.679688c-1.34375,1.994141-2.267578,3.548828-2.267578,4.429688
				c0,0.147461,0.021484,0.31543,0.063477,0.503906L624.863281,99.091797z M636.935547,87.607422
				c-0.021484,0.251953-0.189453,0.398438-0.525391,0.503906c0.167969,1.658203,0.357422,4.451172,0.357422,7.117188
				c-0.021484,4.052734-1.322266,7.874023-8,10.625c-0.356445-0.546875-1.34375-1.595703-1.888672-2.099609
				c5.751953-2.226563,6.970703-5.626953,6.970703-8.482422c0-2.918945-0.273438-5.858398-0.503906-7.810547L636.935547,87.607422z"
				/>
		</g>
	</g>
	<g>
		<rect x="476" y="154" fill="#00AD4E" width="221" height="46"/>
		<g>
			<path fill="#FFFFFF" d="M529.519531,172.462891v13.353516c0,2.225586-0.881836,2.561523-3.779297,2.561523
				c-0.083984-0.629883-0.37793-1.65918-0.650391-2.267578c0.376953,0.020508,0.776367,0.020508,1.111328,0.020508
				c0.945313,0,1.050781,0,1.050781-0.335938v-3.295898l-0.986328,0.944336c-0.378906-1.048828-1.050781-2.456055-1.785156-3.863281
				c-0.482422,1.638672-1.217773,3.066406-2.30957,4.220703c-0.188477-0.293945-0.50293-0.671875-0.839844-1.007813v5.605469
				h-2.204102v-3.400391c-0.567383,0.188477-1.175781,0.419922-1.890625,0.671875
				c-0.188477-1.113281-0.755859-2.855469-1.259766-4.158203l1.890625-0.628906
				c0.482422,1.154297,0.964844,2.560547,1.259766,3.652344V179.9375l-1.595703,0.734375
				c-0.063477-0.292969-0.167969-0.628906-0.294922-0.986328l-1.364258,0.083984v8.628906h-2.225586v-6.802734
				c-0.0625,0.126953-0.210938,0.210938-0.461914,0.189453c-0.209961,1.72168-0.608398,3.737305-1.217773,5.017578
				c-0.441406-0.292969-1.259766-0.650391-1.763672-0.880859c0.525391-1.155273,0.861328-3.150391,1.029297-4.93457
				l2.414063,0.567383v-1.638672c-0.945313,0.063477-1.805664,0.105469-2.498047,0.126953
				c-0.0625,0.208984-0.230469,0.292969-0.378906,0.314453l-0.503906-2.519531h1.595703
				c0.335938-0.419922,0.671875-0.861328,1.007813-1.322266c-0.628906-0.923828-1.636719-2.058594-2.540039-2.876953
				l1.196289-1.72168l0.462891,0.399414c0.628906-1.175781,1.259766-2.603516,1.616211-3.716797l2.519531,1.029297
				c-0.083984,0.146484-0.293945,0.230469-0.567383,0.208984c-0.544922,1.175781-1.427734,2.730469-2.162109,3.884766
				c0.293945,0.314453,0.545898,0.609375,0.755859,0.902344c0.755859-1.216797,1.46875-2.456055,1.994141-3.527344
				l2.415039,1.091797c-0.104492,0.147461-0.31543,0.231445-0.608398,0.231445c-0.966797,1.595703-2.435547,3.695313-3.822266,5.375
				l2.310547-0.020508c-0.251953-0.567383-0.546875-1.113281-0.839844-1.617188l1.826172-0.818359
				c0.650391,1.02832,1.28125,2.267578,1.701172,3.337891v-6.214844h4.009766
				c0.021484-1.217773,0.041992-2.519531,0.041992-3.884766l2.897461,0.147461
				c-0.021484,0.231445-0.189453,0.356445-0.545898,0.419922c-0.020508,1.133789-0.041992,2.24707-0.083984,3.317383H529.519531z
				 M521.331055,174.772461v6.487305c1.071289-1.679688,1.511719-3.883789,1.700195-6.487305H521.331055z M527.251953,174.772461
				h-1.953125c-0.041016,0.524414-0.083984,1.02832-0.146484,1.532227c0.734375,1.239258,1.490234,2.625,2.099609,3.842773
				V174.772461z"/>
			<path fill="#FFFFFF" d="M552.052734,183.275391v2.289063h-8.461914v2.813477h-2.603516v-2.813477h-8.209961v-2.289063h8.209961
				v-1.112305h-6.088867v-8.524414h6.088867v-1.029297h-7.706055v-2.288086h7.706055v-1.743164l3.191406,0.189453
				c-0.020508,0.209961-0.188477,0.335938-0.587891,0.398438v1.155273h7.852539v2.288086h-7.852539v1.029297h6.27832v8.524414
				h-6.27832v1.112305H552.052734z M537.3125,175.654297v1.28125h3.674805v-1.28125H537.3125z M537.3125,180.147461h3.674805
				v-1.323242H537.3125V180.147461z M547.306641,175.654297h-3.71582v1.28125h3.71582V175.654297z M547.306641,180.147461v-1.323242
				h-3.71582v1.323242H547.306641z"/>
			<path fill="#FFFFFF" d="M557.158203,180.042969c-0.566406,0.650391-1.154297,1.259766-1.720703,1.78418
				c-0.231445-0.545898-0.839844-1.72168-1.197266-2.24707c1.679688-1.40625,3.65332-3.863281,4.871094-6.171875l2.561523,1.070313
				c-0.104492,0.146484-0.293945,0.230469-0.586914,0.189453c-0.462891,0.776367-0.988281,1.595703-1.533203,2.37207
				l0.503906,0.167969c-0.063477,0.147461-0.231445,0.31543-0.546875,0.335938v10.854492h-2.351563V180.042969z
				 M561.042969,169.649414c-0.083984,0.147461-0.273438,0.231445-0.545898,0.188477
				c-1.112305,1.617188-3.043945,3.822266-4.745117,5.270508c-0.314453-0.524414-0.966797-1.448242-1.365234-1.911133
				c1.470703-1.175781,3.170898-3.107422,4.010742-4.597656L561.042969,169.649414z M571.037109,179.748047l1.617188,0.693359
				c-0.063477,0.146484-0.167969,0.209961-0.273438,0.293945c-0.693359,1.637695-1.763672,3.00293-3.066406,4.115234
				c1.533203,0.692383,3.296875,1.175781,5.25,1.469727c-0.525391,0.503906-1.175781,1.490234-1.490234,2.141602
				c-2.226563-0.44043-4.199219-1.155273-5.858398-2.141602c-1.700195,0.96582-3.65332,1.658203-5.75293,2.121094
				c-0.230469-0.630859-0.777344-1.595703-1.197266-2.142578c1.763672-0.292969,3.422852-0.796875,4.892578-1.490234
				c-0.629883-0.545898-1.197266-1.154297-1.701172-1.805664c-0.587891,0.461914-1.196289,0.90332-1.804688,1.259766
				c-0.335938-0.483398-1.050781-1.364258-1.491211-1.763672c1.637695-0.881836,3.338867-2.30957,4.514648-3.863281
				l-3.318359,0.125977c-0.0625,0.189453-0.230469,0.293945-0.398438,0.314453l-0.650391-2.624023
				c0.902344,0,1.972656,0,3.169922-0.020508c0.314453-0.231445,0.609375-0.503906,0.923828-0.755859
				c-0.986328-1.029297-2.477539-2.226563-3.737305-3.086914l1.511719-1.637695
				c0.335938,0.209961,0.692383,0.461914,1.071289,0.713867c0.860352-0.96582,1.783203-2.204102,2.371094-3.170898
				l2.457031,1.323242c-0.104492,0.167969-0.314453,0.209961-0.608398,0.188477
				c-0.629883,0.839844-1.700195,1.995117-2.603516,2.876953c0.483398,0.398438,0.923828,0.777344,1.301758,1.154297
				c1.34375-1.300781,2.625-2.708008,3.568359-3.904297l2.583984,1.364258c-0.105469,0.147461-0.335938,0.231445-0.650391,0.209961
				c-1.302734,1.449219-3.171875,3.191406-4.976563,4.681641l3.799805-0.0625
				c-0.356445-0.482422-0.735352-0.945313-1.092773-1.365234l1.953125-1.070313
				c1.259766,1.385742,2.666016,3.275391,3.254883,4.619141l-2.120117,1.175781
				c-0.167969-0.398438-0.400391-0.881836-0.693359-1.385742l-3.821289,0.188477
				c-0.083984,0.147461-0.272461,0.251953-0.545898,0.210938c-0.251953,0.376953-0.525391,0.755859-0.818359,1.132813h4.03125
				L571.037109,179.748047z M565.074219,181.679688c0.566406,0.735352,1.259766,1.386719,2.099609,1.974609
				c0.797852-0.567383,1.469727-1.239258,2.015625-1.974609H565.074219z"/>
			<path fill="#FFFFFF" d="M588.320313,173.576172c-0.083984,0.188477-0.335938,0.356445-0.628906,0.356445
				c-0.861328,7.180664-2.960938,11.337891-6.572266,11.337891c-2.289063,0-3.947266-1.931641-3.947266-5.500977
				c0-5.375,4.283203-9.322266,9.636719-9.322266c5.943359,0,8.986328,3.527344,8.986328,8.083984
				c0,4.933594-2.540039,7.495117-7.831055,8.838867c-0.399414-0.629883-0.987305-1.511719-1.680664-2.225586
				c4.788086-0.945313,6.699219-3.233398,6.699219-6.572266c0-3.379883-2.351563-5.667969-6.214844-5.667969
				c-0.378906,0-0.714844,0.041016-1.071289,0.083984L588.320313,173.576172z M584.982422,173.15625
				c-3.191406,0.755859-5.228516,3.505859-5.228516,6.507813c0,1.763672,0.525391,3.00293,1.449219,3.00293
				C583.260742,182.666992,584.625,178.068359,584.982422,173.15625z"/>
			<path fill="#FFFFFF" d="M615.578125,186.425781c-1.679688,0.272461-4.115234,0.419922-6.298828,0.419922
				c-1.826172,0-3.485352-0.105469-4.367188-0.294922c-2.708984-0.608398-3.863281-2.392578-3.863281-4.303711
				c0-1.637695,0.839844-3.233398,1.973633-4.40918l2.267578,1.007813c-0.96582,0.945313-1.532227,1.994141-1.532227,2.939453
				c0,2.498047,3.001953,2.498047,5.143555,2.498047c2.079102,0,4.555664-0.188477,6.46582-0.566406L615.578125,186.425781z
				 M605.310547,175.507813c0.714844-0.567383,1.847656-1.386719,2.6875-1.847656v-0.021484
				c-1.070313,0.167969-4.051758,0.230469-5.816406,0.209961c0-0.651367-0.019531-1.995117-0.0625-2.583008
				c0.398438,0.021484,0.90332,0.021484,1.470703,0.021484c3.883789,0,7.599609-0.0625,10.686523-0.629883l0.209961,2.708008
				c-3.001953,0.525391-5.605469,2.267578-6.865234,3.296875L605.310547,175.507813z M615.136719,179.076172
				c-0.482422-0.776367-1.785156-2.099609-2.560547-2.728516l1.091797-0.987305
				c0.902344,0.692383,2.056641,1.847656,2.644531,2.708008L615.136719,179.076172z M617.488281,176.87207
				c-0.524414-0.755859-1.742188-2.057617-2.582031-2.708008l1.091797-0.987305c0.96582,0.735352,2.037109,1.847656,2.625,2.666992
				L617.488281,176.87207z"/>
			<path fill="#FFFFFF" d="M626.4375,175.318359v1.28125c0.734375,0.796875,2.540039,3.001953,2.959961,3.527344l-1.428711,2.056641
				c-0.335938-0.692383-0.943359-1.679688-1.53125-2.624023v8.818359h-2.415039V180
				c-0.672852,1.869141-1.491211,3.59082-2.393555,4.766602c-0.230469-0.713867-0.797852-1.743164-1.197266-2.37207
				c1.365234-1.679688,2.625-4.535156,3.275391-7.076172h-2.728516v-2.373047h3.043945v-4.367188l2.959961,0.167969
				c-0.020508,0.210938-0.167969,0.31543-0.544922,0.399414v3.799805h2.644531v2.373047H626.4375z M629.837891,169.733398h9.931641
				v18.350586h-2.541016v-1.091797h-4.976563v1.217773h-2.414063V169.733398z M637.228516,172.105469h-4.976563v2.625h4.976563
				V172.105469z M637.228516,176.998047h-4.976563v2.708984h4.976563V176.998047z M632.251953,184.703125h4.976563v-2.708008
				h-4.976563V184.703125z"/>
			<path fill="#FFFFFF" d="M650.753906,172.084961v1.995117h-8.041016v-1.995117H650.753906z M650.103516,180.861328v6.424805
				h-4.325195v0.819336h-2.120117v-7.244141H650.103516z M650.061523,175.044922v1.911133h-6.34082v-1.911133H650.061523z
				 M643.720703,179.832031v-1.888672h6.34082v1.888672H643.720703z M650.019531,169.25v1.911133h-6.236328V169.25H650.019531z
				 M647.961914,182.855469h-2.183594v2.435547h2.183594V182.855469z M662.679688,179.853516
				c-0.0625,0.167969-0.272461,0.230469-0.566406,0.230469c-0.482422,0.987305-1.301758,2.351563-1.973633,3.234375
				l-1.827148-0.777344c0.567383,1.301758,1.827148,2.792969,4.34668,3.737305
				c-0.44043,0.567383-1.112305,1.532227-1.448242,2.141602c-2.666992-1.007813-4.199219-3.359375-4.578125-4.661133
				c-0.419922,1.301758-2.120117,3.59082-5.039063,4.661133c-0.272461-0.566406-0.944336-1.553711-1.384766-2.057617
				c4.051758-1.427734,5.123047-4.199219,5.123047-5.626953v-3.254883l1.322266,0.063477l1.847656,0.063477
				c-0.021484,0.230469-0.208984,0.376953-0.587891,0.460938v2.666992c0,0.461914,0.105469,1.049805,0.357422,1.700195
				c0.608398-0.986328,1.322266-2.476563,1.720703-3.589844L662.679688,179.853516z M654.365234,179.455078
				c-0.272461,1.616211-0.944336,3.295898-1.972656,4.324219l-2.079102-1.048828
				c0.923828-0.798828,1.575195-2.289063,1.847656-3.738281L654.365234,179.455078z M658.459961,168.80957
				c-0.020508,0.209961-0.188477,0.335938-0.524414,0.399414c-0.105469,1.46875-0.231445,2.8125-0.546875,4.009766
				c1.763672,1.007813,3.925781,2.351563,5.082031,3.296875l-1.679688,1.910156
				c-0.90332-0.839844-2.646484-2.057617-4.262695-3.085938c-0.839844,1.364258-2.204102,2.456055-4.514648,3.253906
				c-0.251953-0.609375-0.880859-1.511719-1.40625-1.973633c4.40918-1.385742,4.744141-3.821289,4.913086-8.020508
				L658.459961,168.80957z M650.817383,173.344727c0.797852-0.776367,1.364258-2.183594,1.595703-3.506836l2.057617,0.419922
				c-0.209961,1.407227-0.755859,2.982422-1.679688,3.926758L650.817383,173.344727z M662.511719,170.699219
				c-0.083984,0.146484-0.292969,0.230469-0.566406,0.209961c-0.462891,0.923828-1.217773,2.204102-1.826172,3.043945
				l-1.826172-0.796875c0.544922-0.966797,1.238281-2.394531,1.574219-3.443359L662.511719,170.699219z"/>
		</g>
	</g>
</g>
</svg>
